# Blender MTL File: 'Kenworth.blend'
# Material Count: 29

newmtl Black
Ns 225.000000
Ka 1.000000 1.000000 1.000000
Kd 0.001031 0.001031 0.001031
Ks 0.500000 0.500000 0.500000
Ke 0.000000 0.000000 0.000000
Ni 1.450000
d 1.000000
illum 2

newmtl Black.001
Ns 225.000000
Ka 1.000000 1.000000 1.000000
Kd 0.001031 0.001031 0.001031
Ks 0.500000 0.500000 0.500000
Ke 0.000000 0.000000 0.000000
Ni 1.450000
d 1.000000
illum 2

newmtl Black.002
Ns 225.000000
Ka 1.000000 1.000000 1.000000
Kd 0.001031 0.001031 0.001031
Ks 0.500000 0.500000 0.500000
Ke 0.000000 0.000000 0.000000
Ni 1.450000
d 1.000000
illum 2

newmtl Black.003
Ns 225.000000
Ka 1.000000 1.000000 1.000000
Kd 0.001031 0.001031 0.001031
Ks 0.500000 0.500000 0.500000
Ke 0.000000 0.000000 0.000000
Ni 1.450000
d 1.000000
illum 2

newmtl Black.004
Ns 225.000000
Ka 1.000000 1.000000 1.000000
Kd 0.001031 0.001031 0.001031
Ks 0.500000 0.500000 0.500000
Ke 0.000000 0.000000 0.000000
Ni 1.450000
d 1.000000
illum 2

newmtl Black.006
Ns 225.000000
Ka 1.000000 1.000000 1.000000
Kd 0.001031 0.001031 0.001031
Ks 0.500000 0.500000 0.500000
Ke 0.000000 0.000000 0.000000
Ni 1.450000
d 1.000000
illum 2

newmtl Black.007
Ns 225.000000
Ka 1.000000 1.000000 1.000000
Kd 0.001031 0.001031 0.001031
Ks 0.500000 0.500000 0.500000
Ke 0.000000 0.000000 0.000000
Ni 1.450000
d 1.000000
illum 2

newmtl Black_Filter
Ns 225.000000
Ka 1.000000 1.000000 1.000000
Kd 0.011088 0.011088 0.011088
Ks 0.500000 0.500000 0.500000
Ke 0.000000 0.000000 0.000000
Ni 1.450000
d 1.000000
illum 2

newmtl Black_Metal
Ns 564.062486
Ka 1.000000 1.000000 1.000000
Kd 0.010022 0.010022 0.010022
Ks 0.500000 0.500000 0.500000
Ke 0.000000 0.000000 0.000000
Ni 1.450000
d 1.000000
illum 3

newmtl Black_Rubber
Ns 473.062492
Ka 0.500000 0.500000 0.500000
Kd 0.000000 0.000000 0.000000
Ks 0.500000 0.500000 0.500000
Ke 0.000000 0.000000 0.000000
Ni 1.450000
d 1.000000
illum 3

newmtl Chrome
Ns 540.562508
Ka 1.000000 1.000000 1.000000
Kd 0.800000 0.800000 0.800000
Ks 0.500000 0.500000 0.500000
Ke 0.000000 0.000000 0.000000
Ni 1.450000
d 1.000000
illum 3

newmtl Chrome.001
Ns 540.562508
Ka 1.000000 1.000000 1.000000
Kd 0.800000 0.800000 0.800000
Ks 0.500000 0.500000 0.500000
Ke 0.000000 0.000000 0.000000
Ni 1.450000
d 1.000000
illum 3

newmtl Chrome.004
Ns 540.562508
Ka 1.000000 1.000000 1.000000
Kd 0.800000 0.800000 0.800000
Ks 0.500000 0.500000 0.500000
Ke 0.000000 0.000000 0.000000
Ni 1.450000
d 1.000000
illum 3

newmtl Chrome.005
Ns 540.562508
Ka 1.000000 1.000000 1.000000
Kd 0.800000 0.800000 0.800000
Ks 0.500000 0.500000 0.500000
Ke 0.000000 0.000000 0.000000
Ni 1.450000
d 1.000000
illum 3

newmtl Glass.001
Ns 900.000000
Ka 1.000000 1.000000 1.000000
Kd 0.800000 0.800000 0.800000
Ks 0.000000 0.000000 0.000000
Ke 0.000000 0.000000 0.000000
Ni 1.450000
d 0.500000
illum 1

newmtl Lights-Yellow.001
Ns 225.000000
Ka 1.000000 1.000000 1.000000
Kd 0.800000 0.300815 0.000910
Ks 0.500000 0.500000 0.500000
Ke 0.000000 0.000000 0.000000
Ni 1.450000
d 1.000000
illum 2

newmtl Navy.002
Ns 225.000000
Ka 1.000000 1.000000 1.000000
Kd 0.007934 0.003664 0.184469
Ks 0.500000 0.500000 0.500000
Ke 0.000000 0.000000 0.000000
Ni 1.450000
d 1.000000
illum 2

newmtl None
Ns 500
Ka 0.8 0.8 0.8
Kd 0.8 0.8 0.8
Ks 0.8 0.8 0.8
d 1
illum 2

newmtl Steel.001
Ns 575.999996
Ka 1.000000 1.000000 1.000000
Kd 1.000000 1.000000 1.000000
Ks 0.500000 0.500000 0.500000
Ke 0.000000 0.000000 0.000000
Ni 1.450000
d 1.000000
illum 3

newmtl Steel.002
Ns 225.000000
Ka 1.000000 1.000000 1.000000
Kd 0.035214 0.019394 0.006412
Ks 0.500000 0.500000 0.500000
Ke 0.000000 0.000000 0.000000
Ni 1.450000
d 1.000000
illum 2

newmtl Steel.005
Ns 575.999996
Ka 1.000000 1.000000 1.000000
Kd 1.000000 1.000000 1.000000
Ks 0.500000 0.500000 0.500000
Ke 0.000000 0.000000 0.000000
Ni 1.450000
d 1.000000
illum 3

newmtl White
Ns 81.000006
Ka 1.000000 1.000000 1.000000
Kd 1.000000 1.000000 1.000000
Ks 1.000000 1.000000 1.000000
Ke 0.000000 0.000000 0.000000
Ni 1.000000
d 1.000000
illum 3

newmtl White.001
Ns 81.000006
Ka 1.000000 1.000000 1.000000
Kd 1.000000 1.000000 1.000000
Ks 1.000000 1.000000 1.000000
Ke 0.000000 0.000000 0.000000
Ni 1.000000
d 1.000000
illum 3

newmtl White.002
Ns 81.000006
Ka 1.000000 1.000000 1.000000
Kd 1.000000 1.000000 1.000000
Ks 1.000000 1.000000 1.000000
Ke 0.000000 0.000000 0.000000
Ni 1.000000
d 1.000000
illum 3

newmtl base.001
Ns 0.000000
Ka 1.000000 1.000000 1.000000
Kd 0.800000 0.800000 0.800000
Ks 0.000000 0.000000 0.000000
Ke 0.000000 0.000000 0.000000
Ni 1.450000
d 1.000000
illum 1

newmtl color_cccccc.001
Ns 0.000000
Ka 1.000000 1.000000 1.000000
Kd 0.800000 0.800000 0.800000
Ks 0.000000 0.000000 0.000000
Ke 0.000000 0.000000 0.000000
Ni 1.450000
d 1.000000
illum 1

newmtl color_cccccc.002
Ns 0.000000
Ka 1.000000 1.000000 1.000000
Kd 0.800000 0.800000 0.800000
Ks 0.000000 0.000000 0.000000
Ke 0.000000 0.000000 0.000000
Ni 1.450000
d 1.000000
illum 1

newmtl color_cccccc.003
Ns 0.000000
Ka 1.000000 1.000000 1.000000
Kd 0.800000 0.800000 0.800000
Ks 0.000000 0.000000 0.000000
Ke 0.000000 0.000000 0.000000
Ni 1.450000
d 1.000000
illum 1

newmtl color_cccccc.004
Ns 0.000000
Ka 1.000000 1.000000 1.000000
Kd 0.800000 0.800000 0.800000
Ks 0.000000 0.000000 0.000000
Ke 0.000000 0.000000 0.000000
Ni 1.450000
d 1.000000
illum 1
