# Blender MTL File: 'Kenworth.blend'
# Material Count: 13

newmtl Black
Ns 225.000000
Ka 1.000000 1.000000 1.000000
Kd 0.001031 0.001031 0.001031
Ks 0.500000 0.500000 0.500000
Ke 0.000000 0.000000 0.000000
Ni 1.450000
d 1.000000
illum 2

newmtl Black.001
Ns 225.000000
Ka 1.000000 1.000000 1.000000
Kd 0.001031 0.001031 0.001031
Ks 0.500000 0.500000 0.500000
Ke 0.000000 0.000000 0.000000
Ni 1.450000
d 1.000000
illum 2

newmtl Black_Filter
Ns 225.000000
Ka 1.000000 1.000000 1.000000
Kd 0.011088 0.011088 0.011088
Ks 0.500000 0.500000 0.500000
Ke 0.000000 0.000000 0.000000
Ni 1.450000
d 1.000000
illum 2

newmtl Black_Metal
Ns 564.062486
Ka 1.000000 1.000000 1.000000
Kd 0.010022 0.010022 0.010022
Ks 0.500000 0.500000 0.500000
Ke 0.000000 0.000000 0.000000
Ni 1.450000
d 1.000000
illum 3

newmtl Black_Rubber
Ns 473.062492
Ka 0.500000 0.500000 0.500000
Kd 0.000000 0.000000 0.000000
Ks 0.500000 0.500000 0.500000
Ke 0.000000 0.000000 0.000000
Ni 1.450000
d 1.000000
illum 3

newmtl Chrome
Ns 540.562508
Ka 1.000000 1.000000 1.000000
Kd 0.800000 0.800000 0.800000
Ks 0.500000 0.500000 0.500000
Ke 0.000000 0.000000 0.000000
Ni 1.450000
d 1.000000
illum 3

newmtl Glass
Ns 900.000000
Ka 1.000000 1.000000 1.000000
Kd 0.800000 0.800000 0.800000
Ks 0.000000 0.000000 0.000000
Ke 0.000000 0.000000 0.000000
Ni 1.450000
d 0.500000
illum 1

newmtl Lights-Yellow
Ns 225.000000
Ka 1.000000 1.000000 1.000000
Kd 0.800000 0.300815 0.000910
Ks 0.500000 0.500000 0.500000
Ke 0.000000 0.000000 0.000000
Ni 1.450000
d 1.000000
illum 2

newmtl Navy
Ns 225.000000
Ka 1.000000 1.000000 1.000000
Kd 0.007934 0.003664 0.184469
Ks 0.500000 0.500000 0.500000
Ke 0.000000 0.000000 0.000000
Ni 1.450000
d 1.000000
illum 2

newmtl Steel
Ns 225.000000
Ka 1.000000 1.000000 1.000000
Kd 0.035214 0.019394 0.006412
Ks 0.500000 0.500000 0.500000
Ke 0.000000 0.000000 0.000000
Ni 1.450000
d 1.000000
illum 2

newmtl Steel.001
Ns 575.999996
Ka 1.000000 1.000000 1.000000
Kd 1.000000 1.000000 1.000000
Ks 0.500000 0.500000 0.500000
Ke 0.000000 0.000000 0.000000
Ni 1.450000
d 1.000000
illum 3

newmtl White
Ns 81.000006
Ka 1.000000 1.000000 1.000000
Kd 0.467202 0.467202 0.467202
Ks 1.000000 1.000000 1.000000
Ke 0.000000 0.000000 0.000000
Ni 1.000000
d 1.000000
illum 3

newmtl base
Ns 0.000000
Ka 1.000000 1.000000 1.000000
Kd 0.800000 0.800000 0.800000
Ks 0.000000 0.000000 0.000000
Ke 0.000000 0.000000 0.000000
Ni 1.450000
d 1.000000
illum 1
