# Blender MTL File: 'Kenworth.blend'
# Material Count: 9

newmtl Black.001
Ns 225.000000
Ka 1.000000 1.000000 1.000000
Kd 0.001031 0.001031 0.001031
Ks 0.500000 0.500000 0.500000
Ke 0.000000 0.000000 0.000000
Ni 1.450000
d 1.000000
illum 2

newmtl Black_Filter
Ns 225.000000
Ka 1.000000 1.000000 1.000000
Kd 0.011088 0.011088 0.011088
Ks 0.500000 0.500000 0.500000
Ke 0.000000 0.000000 0.000000
Ni 1.450000
d 1.000000
illum 2

newmtl Black_Metal
Ns 564.062486
Ka 1.000000 1.000000 1.000000
Kd 0.010022 0.010022 0.010022
Ks 0.500000 0.500000 0.500000
Ke 0.000000 0.000000 0.000000
Ni 1.450000
d 1.000000
illum 3

newmtl Black_Rubber
Ns 473.062492
Ka 0.500000 0.500000 0.500000
Kd 0.000000 0.000000 0.000000
Ks 0.500000 0.500000 0.500000
Ke 0.000000 0.000000 0.000000
Ni 1.450000
d 1.000000
illum 3

newmtl Chrome.001
Ns 540.562508
Ka 1.000000 1.000000 1.000000
Kd 0.800000 0.800000 0.800000
Ks 0.500000 0.500000 0.500000
Ke 0.000000 0.000000 0.000000
Ni 1.450000
d 1.000000
illum 3

newmtl Glass.001
Ns 900.000000
Ka 1.000000 1.000000 1.000000
Kd 0.800000 0.800000 0.800000
Ks 0.000000 0.000000 0.000000
Ke 0.000000 0.000000 0.000000
Ni 1.450000
d 0.500000
illum 1

newmtl Lights-Yellow.001
Ns 225.000000
Ka 1.000000 1.000000 1.000000
Kd 0.800000 0.300815 0.000910
Ks 0.500000 0.500000 0.500000
Ke 0.000000 0.000000 0.000000
Ni 1.450000
d 1.000000
illum 2

newmtl Steel.002
Ns 225.000000
Ka 1.000000 1.000000 1.000000
Kd 0.035214 0.019394 0.006412
Ks 0.500000 0.500000 0.500000
Ke 0.000000 0.000000 0.000000
Ni 1.450000
d 1.000000
illum 2

newmtl base.001
Ns 0.000000
Ka 1.000000 1.000000 1.000000
Kd 0.800000 0.800000 0.800000
Ks 0.000000 0.000000 0.000000
Ke 0.000000 0.000000 0.000000
Ni 1.450000
d 1.000000
illum 1
