# Blender MTL File: 'Western Star.blend'
# Material Count: 17

newmtl Color_000.003
Ns 225.000000
Ka 1.000000 1.000000 1.000000
Kd 1.000000 1.000000 1.000000
Ks 0.500000 0.500000 0.500000
Ke 0.000000 0.000000 0.000000
Ni 1.450000
d 1.000000
illum 2

newmtl Color_004.003
Ns 225.000000
Ka 1.000000 1.000000 1.000000
Kd 0.556863 0.556863 0.556863
Ks 0.500000 0.500000 0.500000
Ke 0.000000 0.000000 0.000000
Ni 1.450000
d 1.000000
illum 2

newmtl Color_008.003
Ns 225.000000
Ka 1.000000 1.000000 1.000000
Kd 0.117647 0.117647 0.117647
Ks 0.500000 0.500000 0.500000
Ke 0.000000 0.000000 0.000000
Ni 1.450000
d 1.000000
illum 2

newmtl Color_009.003
Ns 225.000000
Ka 1.000000 1.000000 1.000000
Kd 0.000000 0.000000 0.000000
Ks 0.500000 0.500000 0.500000
Ke 0.000000 0.000000 0.000000
Ni 1.450000
d 1.000000
illum 2

newmtl Color_C01.003
Ns 225.000000
Ka 1.000000 1.000000 1.000000
Kd 1.000000 0.498039 0.000000
Ks 0.500000 0.500000 0.500000
Ke 0.000000 0.000000 0.000000
Ni 1.450000
d 1.000000
illum 2

newmtl Default_Materia1.003
Ns 225.000000
Ka 1.000000 1.000000 1.000000
Kd 0.752941 0.752941 0.752941
Ks 0.500000 0.500000 0.500000
Ke 0.000000 0.000000 0.000000
Ni 1.450000
d 1.000000
illum 2

newmtl Fencing_Mesh_Blue.003
Ns 225.000000
Ka 1.000000 1.000000 1.000000
Kd 0.800000 0.800000 0.800000
Ks 0.500000 0.500000 0.500000
Ke 0.000000 0.000000 0.000000
Ni 1.450000
d 1.000000
illum 2

newmtl _0131_Silver.003
Ns 225.000000
Ka 1.000000 1.000000 1.000000
Kd 0.752941 0.752941 0.752941
Ks 0.500000 0.500000 0.500000
Ke 0.000000 0.000000 0.000000
Ni 1.450000
d 1.000000
illum 2

newmtl _0136_Cha2.003
Ns 225.000000
Ka 1.000000 1.000000 1.000000
Kd 0.086275 0.082353 0.086275
Ks 0.500000 0.500000 0.500000
Ke 0.000000 0.000000 0.000000
Ni 1.450000
d 1.000000
illum 2

newmtl _05379exhd.gloss2.003
Ns 225.000000
Ka 1.000000 1.000000 1.000000
Kd 0.694118 0.694118 0.694118
Ks 0.500000 0.500000 0.500000
Ke 0.000000 0.000000 0.000000
Ni 1.450000
d 1.000000
illum 2

newmtl _05379exhd.gloss3.003
Ns 225.000000
Ka 1.000000 1.000000 1.000000
Kd 0.666667 0.666667 0.666667
Ks 0.500000 0.500000 0.500000
Ke 0.000000 0.000000 0.000000
Ni 1.450000
d 1.000000
illum 2

newmtl __Charcoal_.003
Ns 225.000000
Ka 1.000000 1.000000 1.000000
Kd 0.137255 0.137255 0.137255
Ks 0.500000 0.500000 0.500000
Ke 0.000000 0.000000 0.000000
Ni 1.450000
d 1.000000
illum 2

newmtl __Color_001_1.003
Ns 225.000000
Ka 1.000000 1.000000 1.000000
Kd 0.886275 0.886275 0.886275
Ks 0.500000 0.500000 0.500000
Ke 0.000000 0.000000 0.000000
Ni 1.450000
d 1.000000
illum 2

newmtl __Color_003_1.003
Ns 225.000000
Ka 1.000000 1.000000 1.000000
Kd 0.666667 0.666667 0.666667
Ks 0.500000 0.500000 0.500000
Ke 0.000000 0.000000 0.000000
Ni 1.450000
d 1.000000
illum 2

newmtl __Translucent_Glass_Gray_2.003
Ns 225.000000
Ka 1.000000 1.000000 1.000000
Kd 0.752941 0.752941 0.752941
Ks 0.500000 0.500000 0.500000
Ke 0.000000 0.000000 0.000000
Ni 1.450000
d 0.501961
illum 9

newmtl material.003
Ns 225.000000
Ka 1.000000 1.000000 1.000000
Kd 0.694118 0.717647 0.745098
Ks 0.500000 0.500000 0.500000
Ke 0.000000 0.000000 0.000000
Ni 1.450000
d 1.000000
illum 2

newmtl material_0.003
Ns 225.000000
Ka 1.000000 1.000000 1.000000
Kd 1.000000 1.000000 1.000000
Ks 0.500000 0.500000 0.500000
Ke 0.000000 0.000000 0.000000
Ni 1.450000
d 1.000000
illum 2
